%YAML 1.1
%TAG !u! tag:unity3d.com,2011:
--- !u!65 &2718825607630471178
BoxCollider:
  m_ObjectHideFlags: 0
  m_CorrespondingSourceObject: {fileID: 0}
  m_PrefabInstance: {fileID: 0}
  m_PrefabAsset: {fileID: 0}
  m_GameObject: {fileID: 4361688477113758271}
  m_Material: {fileID: 0}
  m_IsTrigger: 1
  m_Enabled: 1
  serializedVersion: 2
  m_Size: {x: 9.603313, y: 10.817414, z: 5.301246}
  m_Center: {x: 1.2121098, y: 4.9087114, z: 0.82249415}
--- !u!1001 &5326688155802938952
PrefabInstance:
  m_ObjectHideFlags: 0
  serializedVersion: 2
  m_Modification:
    m_TransformParent: {fileID: 0}
    m_Modifications:
    - target: {fileID: 192026322377965763, guid: 918b3c5bd6c45544c898332f1fae58f1, type: 3}
      propertyPath: m_Materials.Array.data[0]
      value: 
      objectReference: {fileID: 2100000, guid: 8805479a0d0ce074cb3cd7325c0a3523, type: 2}
    - target: {fileID: 250035640250293926, guid: 918b3c5bd6c45544c898332f1fae58f1, type: 3}
      propertyPath: m_Materials.Array.data[0]
      value: 
      objectReference: {fileID: 2100000, guid: 8805479a0d0ce074cb3cd7325c0a3523, type: 2}
    - target: {fileID: 904898629008569474, guid: 918b3c5bd6c45544c898332f1fae58f1, type: 3}
      propertyPath: m_Materials.Array.data[0]
      value: 
      objectReference: {fileID: 2100000, guid: 8805479a0d0ce074cb3cd7325c0a3523, type: 2}
    - target: {fileID: 2953200672991568213, guid: 918b3c5bd6c45544c898332f1fae58f1, type: 3}
      propertyPath: m_Enabled
      value: 1
      objectReference: {fileID: 0}
    - target: {fileID: 7422333305297735570, guid: 918b3c5bd6c45544c898332f1fae58f1, type: 3}
      propertyPath: m_RootOrder
      value: 0
      objectReference: {fileID: 0}
    - target: {fileID: 8461109385772244086, guid: 918b3c5bd6c45544c898332f1fae58f1, type: 3}
      propertyPath: m_UseGravity
      value: 0
      objectReference: {fileID: 0}
    - target: {fileID: 8461109385772244087, guid: 918b3c5bd6c45544c898332f1fae58f1, type: 3}
      propertyPath: m_Name
      value: Crystal Red Resource Item
      objectReference: {fileID: 0}
    - target: {fileID: 8461109385772244088, guid: 918b3c5bd6c45544c898332f1fae58f1, type: 3}
      propertyPath: m_RootOrder
      value: 0
      objectReference: {fileID: 0}
    - target: {fileID: 8461109385772244088, guid: 918b3c5bd6c45544c898332f1fae58f1, type: 3}
      propertyPath: m_LocalScale.x
      value: 0.007
      objectReference: {fileID: 0}
    - target: {fileID: 8461109385772244088, guid: 918b3c5bd6c45544c898332f1fae58f1, type: 3}
      propertyPath: m_LocalScale.y
      value: 0.007
      objectReference: {fileID: 0}
    - target: {fileID: 8461109385772244088, guid: 918b3c5bd6c45544c898332f1fae58f1, type: 3}
      propertyPath: m_LocalScale.z
      value: 0.007
      objectReference: {fileID: 0}
    - target: {fileID: 8461109385772244088, guid: 918b3c5bd6c45544c898332f1fae58f1, type: 3}
      propertyPath: m_LocalPosition.x
      value: 0
      objectReference: {fileID: 0}
    - target: {fileID: 8461109385772244088, guid: 918b3c5bd6c45544c898332f1fae58f1, type: 3}
      propertyPath: m_LocalPosition.y
      value: 0
      objectReference: {fileID: 0}
    - target: {fileID: 8461109385772244088, guid: 918b3c5bd6c45544c898332f1fae58f1, type: 3}
      propertyPath: m_LocalPosition.z
      value: 0
      objectReference: {fileID: 0}
    - target: {fileID: 8461109385772244088, guid: 918b3c5bd6c45544c898332f1fae58f1, type: 3}
      propertyPath: m_LocalRotation.w
      value: 1
      objectReference: {fileID: 0}
    - target: {fileID: 8461109385772244088, guid: 918b3c5bd6c45544c898332f1fae58f1, type: 3}
      propertyPath: m_LocalRotation.x
      value: -0
      objectReference: {fileID: 0}
    - target: {fileID: 8461109385772244088, guid: 918b3c5bd6c45544c898332f1fae58f1, type: 3}
      propertyPath: m_LocalRotation.y
      value: -0
      objectReference: {fileID: 0}
    - target: {fileID: 8461109385772244088, guid: 918b3c5bd6c45544c898332f1fae58f1, type: 3}
      propertyPath: m_LocalRotation.z
      value: -0
      objectReference: {fileID: 0}
    - target: {fileID: 8461109385772244088, guid: 918b3c5bd6c45544c898332f1fae58f1, type: 3}
      propertyPath: m_LocalEulerAnglesHint.x
      value: 0
      objectReference: {fileID: 0}
    - target: {fileID: 8461109385772244088, guid: 918b3c5bd6c45544c898332f1fae58f1, type: 3}
      propertyPath: m_LocalEulerAnglesHint.y
      value: 0
      objectReference: {fileID: 0}
    - target: {fileID: 8461109385772244088, guid: 918b3c5bd6c45544c898332f1fae58f1, type: 3}
      propertyPath: m_LocalEulerAnglesHint.z
      value: 0
      objectReference: {fileID: 0}
    - target: {fileID: 8461109385772244091, guid: 918b3c5bd6c45544c898332f1fae58f1, type: 3}
      propertyPath: item
      value: 
      objectReference: {fileID: 11400000, guid: fc1b47ed642923b48b009d5c359f9077, type: 2}
    m_RemovedComponents:
    - {fileID: 2953200672991568213, guid: 918b3c5bd6c45544c898332f1fae58f1, type: 3}
  m_SourcePrefab: {fileID: 100100000, guid: 918b3c5bd6c45544c898332f1fae58f1, type: 3}
--- !u!1 &4361688477113758271 stripped
GameObject:
  m_CorrespondingSourceObject: {fileID: 8461109385772244087, guid: 918b3c5bd6c45544c898332f1fae58f1, type: 3}
  m_PrefabInstance: {fileID: 5326688155802938952}
  m_PrefabAsset: {fileID: 0}
