%YAML 1.1
%TAG !u! tag:unity3d.com,2011:
--- !u!114 &11400000
MonoBehaviour:
  m_ObjectHideFlags: 0
  m_CorrespondingSourceObject: {fileID: 0}
  m_PrefabInstance: {fileID: 0}
  m_PrefabAsset: {fileID: 0}
  m_GameObject: {fileID: 0}
  m_Enabled: 1
  m_EditorHideFlags: 0
  m_Script: {fileID: 11500000, guid: 2b434f08bc4f12a498275fa7e566922f, type: 3}
  m_Name: TerritoryDataCold
  m_EditorClassIdentifier: 
  _territoryOpenMaterial: {fileID: 2100000, guid: e7a9334d4b24f8b4d898cbbcc58f62a6, type: 2}
  _territoryCloseMaterial: {fileID: 2100000, guid: 1f6b470b4a6574142b804eff3bf5676a, type: 2}
  _heightOpen: 0.02
  _heightClose: 0
  _playerState: {fileID: 11400000, guid: 7c3ffa80e6ba4b643b33c66f60091319, type: 2}
