%YAML 1.1
%TAG !u! tag:unity3d.com,2011:
--- !u!114 &11400000
MonoBehaviour:
  m_ObjectHideFlags: 0
  m_CorrespondingSourceObject: {fileID: 0}
  m_PrefabInstance: {fileID: 0}
  m_PrefabAsset: {fileID: 0}
  m_GameObject: {fileID: 0}
  m_Enabled: 1
  m_EditorHideFlags: 0
  m_Script: {fileID: 11500000, guid: 2b434f08bc4f12a498275fa7e566922f, type: 3}
  m_Name: TerritoryDataDefault
  m_EditorClassIdentifier: 
  _territoryOpenMaterial: {fileID: 2100000, guid: 47362e02d4dc3924086411fd9de66858, type: 2}
  _territoryCloseMaterial: {fileID: 2100000, guid: c691a77b310778349846dbb0efa1615e, type: 2}
  _heightOpen: 0.02
  _heightClose: 0
  _playerState: {fileID: 11400000, guid: 97b20485f28feac46bc7aed66459182e, type: 2}
