%YAML 1.1
%TAG !u! tag:unity3d.com,2011:
--- !u!1 &7116446992141624944
GameObject:
  m_ObjectHideFlags: 0
  m_CorrespondingSourceObject: {fileID: 0}
  m_PrefabInstance: {fileID: 0}
  m_PrefabAsset: {fileID: 0}
  serializedVersion: 6
  m_Component:
  - component: {fileID: 4670040288184815693}
  m_Layer: 0
  m_Name: Wood Resource Item 5
  m_TagString: Untagged
  m_Icon: {fileID: 0}
  m_NavMeshLayer: 0
  m_StaticEditorFlags: 0
  m_IsActive: 1
--- !u!4 &4670040288184815693
Transform:
  m_ObjectHideFlags: 0
  m_CorrespondingSourceObject: {fileID: 0}
  m_PrefabInstance: {fileID: 0}
  m_PrefabAsset: {fileID: 0}
  m_GameObject: {fileID: 7116446992141624944}
  m_LocalRotation: {x: 0, y: 0, z: 0, w: 1}
  m_LocalPosition: {x: 0, y: 0, z: 0}
  m_LocalScale: {x: 1, y: 1, z: 1}
  m_Children:
  - {fileID: 2046741314264780026}
  m_Father: {fileID: 0}
  m_RootOrder: 0
  m_LocalEulerAnglesHint: {x: 0, y: 0, z: 0}
--- !u!1001 &2012481336469826321
PrefabInstance:
  m_ObjectHideFlags: 0
  serializedVersion: 2
  m_Modification:
    m_TransformParent: {fileID: 4670040288184815693}
    m_Modifications:
    - target: {fileID: -8679921383154817045, guid: 126f458bf81f7b545806235d9271999d, type: 3}
      propertyPath: m_RootOrder
      value: 0
      objectReference: {fileID: 0}
    - target: {fileID: -8679921383154817045, guid: 126f458bf81f7b545806235d9271999d, type: 3}
      propertyPath: m_LocalScale.x
      value: 0.15
      objectReference: {fileID: 0}
    - target: {fileID: -8679921383154817045, guid: 126f458bf81f7b545806235d9271999d, type: 3}
      propertyPath: m_LocalScale.y
      value: 0.15
      objectReference: {fileID: 0}
    - target: {fileID: -8679921383154817045, guid: 126f458bf81f7b545806235d9271999d, type: 3}
      propertyPath: m_LocalScale.z
      value: 0.15
      objectReference: {fileID: 0}
    - target: {fileID: -8679921383154817045, guid: 126f458bf81f7b545806235d9271999d, type: 3}
      propertyPath: m_LocalPosition.x
      value: 0.0282
      objectReference: {fileID: 0}
    - target: {fileID: -8679921383154817045, guid: 126f458bf81f7b545806235d9271999d, type: 3}
      propertyPath: m_LocalPosition.y
      value: 0.4943
      objectReference: {fileID: 0}
    - target: {fileID: -8679921383154817045, guid: 126f458bf81f7b545806235d9271999d, type: 3}
      propertyPath: m_LocalPosition.z
      value: -0.0243
      objectReference: {fileID: 0}
    - target: {fileID: -8679921383154817045, guid: 126f458bf81f7b545806235d9271999d, type: 3}
      propertyPath: m_LocalRotation.w
      value: 0.51435906
      objectReference: {fileID: 0}
    - target: {fileID: -8679921383154817045, guid: 126f458bf81f7b545806235d9271999d, type: 3}
      propertyPath: m_LocalRotation.x
      value: -0.48521623
      objectReference: {fileID: 0}
    - target: {fileID: -8679921383154817045, guid: 126f458bf81f7b545806235d9271999d, type: 3}
      propertyPath: m_LocalRotation.y
      value: 0.48521623
      objectReference: {fileID: 0}
    - target: {fileID: -8679921383154817045, guid: 126f458bf81f7b545806235d9271999d, type: 3}
      propertyPath: m_LocalRotation.z
      value: 0.51435906
      objectReference: {fileID: 0}
    - target: {fileID: -8679921383154817045, guid: 126f458bf81f7b545806235d9271999d, type: 3}
      propertyPath: m_LocalEulerAnglesHint.x
      value: -86.66
      objectReference: {fileID: 0}
    - target: {fileID: -8679921383154817045, guid: 126f458bf81f7b545806235d9271999d, type: 3}
      propertyPath: m_LocalEulerAnglesHint.y
      value: 0
      objectReference: {fileID: 0}
    - target: {fileID: -8679921383154817045, guid: 126f458bf81f7b545806235d9271999d, type: 3}
      propertyPath: m_LocalEulerAnglesHint.z
      value: 90
      objectReference: {fileID: 0}
    - target: {fileID: -7511558181221131132, guid: 126f458bf81f7b545806235d9271999d, type: 3}
      propertyPath: m_Materials.Array.data[0]
      value: 
      objectReference: {fileID: 2100000, guid: c7586bb8024344c449e749e26dd6d8e1, type: 2}
    - target: {fileID: 919132149155446097, guid: 126f458bf81f7b545806235d9271999d, type: 3}
      propertyPath: m_Name
      value: tree5
      objectReference: {fileID: 0}
    m_RemovedComponents: []
  m_SourcePrefab: {fileID: 100100000, guid: 126f458bf81f7b545806235d9271999d, type: 3}
--- !u!4 &2046741314264780026 stripped
Transform:
  m_CorrespondingSourceObject: {fileID: -8679921383154817045, guid: 126f458bf81f7b545806235d9271999d, type: 3}
  m_PrefabInstance: {fileID: 2012481336469826321}
  m_PrefabAsset: {fileID: 0}
